{"status":200,"message":"Tim kiem thanh cong","data":{"currentPage":1,"totalPages":20,"pageSize":1,"totalElements":20,"items":[{"id":1,"name":"Phở Bò Truyền Thống","description":"Nước dùng hầm xương bò nhiều giờ cho vị ngọt thanh tự nhiên, bánh phở mềm dai và thịt bò tái lăn vừa chín tới. Món ăn mang hương vị gia truyền, ấm bụng và dễ ăn cho mọi thời điểm trong ngày.","price":55000.00,"stockQuantity":120,"imageUrl":"https://res.cloudinary.com/dgxvoyfyv/image/upload/v1775690432/pi23ipovb6qjcytwd5b8.jpg","isActive":true,"category":{"id":1,"name":"Món Nước","description":"Các món nước nóng hổi, đậm đà, phù hợp cho bữa chính và dễ ăn mỗi ngày."},"createdAt":"2026-04-09T06:18:24","likeCount":0,"liked":false}]},"timestamp":"2026-04-09T06:45:31.9806273"}